[
    {
        "StoreName": "QFC",
        "Keywords": ["Grocery", "Pharmacy", "Liquor"]
    },
    {
        "StoreName": "Costco",
        "Keywords": ["Grocery", "Pharmacy", "Liquor", "Appliance"]
    },
    {
        "StoreName": "Staples",
        "Keywords": ["Office supplies", "Computers"]
    },
    {
        "StoreName": "Home Depot",
        "Keywords": ["Construction Material", "Graden supplies"]
    }
]
