[
    {
        "product": "C#.NET",
        "company": "Microsoft Corp."
    },
    {
        "product": "Java",
        "company": "Oracle Corp."
    },
    {
        "product": "JavaScript",
        "company": "Netscape Communication Corp"
    },
    {
        "product": "C++ Builder",
        "company": "Borland Corp"
    }
]