{
    "type": "pictureCaption",
    "content": [
        {
            "title": "Linux01",
            "url": "images/Linux01.jpg",
            "caption": "Linux Wallpapper 01"
        },
        {
            "title": "Linux02",
            "url": "images/Linux02.jpg",
            "caption": "Linux Wallpapper 02"
        },
        {
            "title": "Linux03",
            "url": "images/Linux03.jpg",
            "caption": "Linux Wallpapper 03"
        }
    ]
}