[
    {
        "product": "Windows OS",
        "company": "Microsoft Corp"
    },
    {
        "product": "Linux OS",
        "company": "AT&T"
    },
    {
        "product": "IOS",
        "company": "Apple Corp"
    },
    {
        "product": "AS400",
        "company": "IBM Corp"
    }
]