{
    "type": "fileList",
    "content": {
        "President01.json": "data/Presidents01.json",
        "President02.json": "data/Presidents02.json",
        "President03.json": "data/Presidents03.json",
        "President04.json": "data/Presidents04.json",
        "President01.md" : "data/Presidents01.md"
    }
}